{
    "extends": [
        "tslint:latest",
        "tslint-config-prettier"
    ],
    "linterOptions": {
        "exclude": [
            "node_modules/**/*.ts",
            "dist/**/*.ts"
        ]
    },
    "rules": {
        "no-console": false,
        "object-literal-sort-keys": false,
        "ordered-imports": false,
        "no-submodule-imports": false
    }
}
